<?xml version="1.0" encoding="utf-8"?>
<!-- Generator: Adobe Illustrator 22.1.0, SVG Export Plug-In . SVG Version: 6.00 Build 0)  -->
<svg version="1.1" id="Layer_1" xmlns="http://www.w3.org/2000/svg" xmlns:xlink="http://www.w3.org/1999/xlink" x="0px" y="0px"
	 viewBox="0 0 320.6 78.7" style="enable-background:new 0 0 320.6 78.7;" xml:space="preserve">
<style type="text/css">
	.st0{fill:#1B92E2;}
	.st1{fill:#4BB749;}
</style>
<g>
	<polygon class="st0" points="299.1,52 320.6,25.3 301.4,25.3 289.5,40.1 277.5,25.3 258.3,25.3 279.9,52 258.3,78.7 277.5,78.7 
		289.5,63.9 301.4,78.7 320.6,78.7 	"/>
	<path id="O_1_" class="st0" d="M232.9,25.3c-14.7,0-26.7,12-26.7,26.7s12,26.7,26.7,26.7c14.7,0,26.7-12,26.7-26.7
		S247.6,25.3,232.9,25.3z M232.9,63.9c-6.6,0-11.9-5.3-11.9-11.9c0-6.6,5.3-11.9,11.9-11.9s11.9,5.3,11.9,11.9
		C244.7,58.6,239.4,63.9,232.9,63.9z"/>
	<path id="N_1_" class="st0" d="M195.3,40.1c-3.2-8.6-11.5-14.8-21.3-14.8s-18.1,6.2-21.3,14.8c-0.9,2.5-1.4,5.1-1.4,7.9v30.7h14.8
		v-9.4V48c0-4.4,3.5-7.9,7.9-7.9s7.9,3.5,7.9,7.9v21.3v9.4h14.8V48C196.8,45.3,196.3,42.6,195.3,40.1z"/>
	<rect id="I_1_" x="127.2" y="25.3" class="st0" width="14.8" height="53.4"/>
	<polygon class="st0" points="117.8,78.7 96.2,52 117.8,25.3 98.6,25.3 86.7,40.1 86.7,0 71.9,0 71.9,78.7 86.7,78.7 86.7,63.9 
		98.6,78.7 	"/>
	<polygon class="st0" points="39.2,20.1 31.2,0 23.3,20.1 0,78.7 15.9,78.7 31.2,40.1 46.5,78.7 62.5,78.7 	"/>
	<circle class="st1" cx="134.6" cy="11.5" r="7.4"/>
</g>
</svg>
